waveform.vcd
$date
	Tue Jul 01 22:41:11 2025
$end
$version
	Icarus Verilog
$end
$timescale
	1ps
$end
$scope module Top_tb $end
$var reg 1 ! CLK $end
$var integer 32 " i [31:0] $end
$scope module uut $end
$var wire 1 ! CLK $end
$var wire 32 # WriteDataM [31:0] $end
$var wire 32 $ WriteDataE [31:0] $end
$var wire 32 % ResultW [31:0] $end
$var wire 1 & ResultSrcW $end
$var wire 1 ' ResultSrcM $end
$var wire 1 ( ResultSrcE $end
$var wire 1 ) ResultSrcD $end
$var wire 1 * RegWriteW $end
$var wire 1 + RegWriteM $end
$var wire 1 , RegWriteE $end
$var wire 1 - RegWriteD $end
$var wire 32 . ReadDataW [31:0] $end
$var wire 5 / RdW [4:0] $end
$var wire 5 0 RdM [4:0] $end
$var wire 5 1 RdE [4:0] $end
$var wire 5 2 RdD [4:0] $end
$var wire 32 3 RDI [31:0] $end
$var wire 32 4 RDD [31:0] $end
$var wire 32 5 RD2E [31:0] $end
$var wire 32 6 RD2D [31:0] $end
$var wire 32 7 RD1E [31:0] $end
$var wire 32 8 RD1D [31:0] $end
$var wire 1 9 Pass_ResultSrcM $end
$var wire 1 : Pass_ResultSrcE $end
$var wire 1 ; Pass_RegWriteW $end
$var wire 1 < Pass_RegWriteM $end
$var wire 1 = Pass_RegWriteE $end
$var wire 5 > Pass_RdW [4:0] $end
$var wire 5 ? Pass_RdM [4:0] $end
$var wire 5 @ Pass_RdE [4:0] $end
$var wire 32 A Pass_PCPlus4M [31:0] $end
$var wire 32 B Pass_PCPlus4E [31:0] $end
$var wire 32 C Pass_PCPlus4D [31:0] $end
$var wire 32 D Pass_PCD [31:0] $end
$var wire 1 E Pass_MemWriteE $end
$var wire 32 F Pass_ALUResultM [31:0] $end
$var wire 32 G PCTargetE [31:0] $end
$var wire 1 H PCSrcE $end
$var wire 32 I PCPlus4W [31:0] $end
$var wire 32 J PCPlus4M [31:0] $end
$var wire 32 K PCPlus4F [31:0] $end
$var wire 32 L PCPlus4E [31:0] $end
$var wire 32 M PCPlus4D [31:0] $end
$var wire 32 N PCF [31:0] $end
$var wire 32 O PCE [31:0] $end
$var wire 32 P PCD [31:0] $end
$var wire 1 Q MemWriteM $end
$var wire 1 R MemWriteE $end
$var wire 1 S MemWriteD $end
$var wire 32 T InstrD [31:0] $end
$var wire 32 U ImmExtE [31:0] $end
$var wire 32 V ImmExtD [31:0] $end
$var wire 1 W BranchE $end
$var wire 1 X BranchD $end
$var wire 1 Y ALUSrcE $end
$var wire 1 Z ALUSrcD $end
$var wire 32 [ ALUResultW [31:0] $end
$var wire 32 \ ALUResultM [31:0] $end
$var wire 32 ] ALUResultE [31:0] $end
$var wire 3 ^ ALUControlE [2:0] $end
$var wire 3 _ ALUControlD [2:0] $end
$scope module D $end
$var wire 1 ! CLK $end
$var wire 32 ` Pass_PCD [31:0] $end
$var wire 32 a Pass_PCPlus4D [31:0] $end
$var wire 32 b ResultW [31:0] $end
$var wire 1 ) ResultSrcD $end
$var wire 1 ; RegWriteW $end
$var wire 1 - RegWriteD $end
$var wire 5 c RdW [4:0] $end
$var wire 5 d RdD [4:0] $end
$var wire 32 e RD2D [31:0] $end
$var wire 32 f RD1D [31:0] $end
$var wire 32 g PCPlus4D [31:0] $end
$var wire 32 h PCD [31:0] $end
$var wire 1 S MemWriteD $end
$var wire 32 i InstrD [31:0] $end
$var wire 2 j ImmSrcD [1:0] $end
$var wire 32 k ImmExtD [31:0] $end
$var wire 1 X BranchD $end
$var wire 1 Z ALUSrcD $end
$var wire 3 l ALUControlD [2:0] $end
$scope module CU $end
$var wire 3 m funct3 [2:0] $end
$var wire 1 n funct7b5 $end
$var wire 7 o op [6:0] $end
$var wire 1 p opb5 $end
$var wire 1 ) ResultSrc $end
$var wire 1 - RegWrite $end
$var wire 1 S MemWrite $end
$var wire 2 q ImmSrc [1:0] $end
$var wire 1 X Branch $end
$var wire 1 Z ALUSrc $end
$var wire 2 r ALUOp [1:0] $end
$var wire 3 s ALUControl [2:0] $end
$scope module alu_decoder $end
$var wire 3 t funct3 [2:0] $end
$var wire 1 n funct7b5 $end
$var wire 1 p opb5 $end
$var wire 2 u ALUOp [1:0] $end
$var reg 3 v ALUControl [2:0] $end
$upscope $end
$scope module main_decoder $end
$var wire 7 w op [6:0] $end
$var reg 2 x ALUOp [1:0] $end
$var reg 1 Z ALUSrc $end
$var reg 1 X Branch $end
$var reg 2 y ImmSrc [1:0] $end
$var reg 1 S MemWrite $end
$var reg 1 - RegWrite $end
$var reg 1 ) ResultSrc $end
$upscope $end
$upscope $end
$scope module E $end
$var wire 2 z ImmSrc [1:0] $end
$var wire 25 { Instr [31:7] $end
$var reg 32 | ImmExt [31:0] $end
$upscope $end
$scope module RF $end
$var wire 5 } A1 [4:0] $end
$var wire 5 ~ A2 [4:0] $end
$var wire 1 ! CLK $end
$var wire 32 !" RD1 [31:0] $end
$var wire 32 "" RD2 [31:0] $end
$var wire 1 ; WE3 $end
$var wire 32 #" WD3 [31:0] $end
$var wire 5 $" A3 [4:0] $end
$upscope $end
$upscope $end
$scope module E $end
$var wire 1 H PCSrcE $end
$var wire 1 E Pass_MemWriteE $end
$var wire 32 %" Pass_PCPlus4E [31:0] $end
$var wire 5 &" Pass_RdE [4:0] $end
$var wire 1 = Pass_RegWriteE $end
$var wire 1 : Pass_ResultSrcE $end
$var wire 32 '" WriteDataE [31:0] $end
$var wire 1 (" ZeroE $end
$var wire 32 )" SrcBE [31:0] $end
$var wire 1 ( ResultSrcE $end
$var wire 1 , RegWriteE $end
$var wire 5 *" RdE [4:0] $end
$var wire 32 +" RD2E [31:0] $end
$var wire 32 ," RD1E [31:0] $end
$var wire 32 -" PCTargetE [31:0] $end
$var wire 32 ." PCPlus4E [31:0] $end
$var wire 32 /" PCE [31:0] $end
$var wire 1 R MemWriteE $end
$var wire 32 0" ImmExtE [31:0] $end
$var wire 1 W BranchE $end
$var wire 1 Y ALUSrcE $end
$var wire 32 1" ALUResultE [31:0] $end
$var wire 3 2" ALUControlE [2:0] $end
$scope module A2 $end
$var wire 32 3" PCTarget [31:0] $end
$var wire 32 4" PC [31:0] $end
$var wire 32 5" ImmExt [31:0] $end
$upscope $end
$scope module ALU $end
$var wire 1 (" Zero $end
$var wire 32 6" SrcB [31:0] $end
$var wire 32 7" SrcA [31:0] $end
$var wire 3 8" ALUControl [2:0] $end
$var reg 32 9" ALUResult [31:0] $end
$upscope $end
$scope module M2 $end
$var wire 32 :" SrcB [31:0] $end
$var wire 32 ;" RD2 [31:0] $end
$var wire 32 <" ImmExt [31:0] $end
$var wire 1 Y ALUSrc $end
$upscope $end
$upscope $end
$scope module F $end
$var wire 1 ! CLK $end
$var wire 32 =" PCPlus4F [31:0] $end
$var wire 1 H PCSrcE $end
$var wire 32 >" PCTargetE [31:0] $end
$var wire 32 ?" internal_PCPlus4F [31:0] $end
$var wire 32 @" RD [31:0] $end
$var wire 32 A" PCF [31:0] $end
$var wire 32 B" M1_PC [31:0] $end
$scope module A1 $end
$var wire 32 C" PCPlus4 [31:0] $end
$var wire 32 D" PC [31:0] $end
$upscope $end
$scope module IM $end
$var wire 32 E" RD [31:0] $end
$var wire 32 F" A [31:0] $end
$upscope $end
$scope module M1 $end
$var wire 32 G" PCPlus4 [31:0] $end
$var wire 1 H PCSrc $end
$var wire 32 H" PCTarget [31:0] $end
$var wire 32 I" PCNext [31:0] $end
$upscope $end
$scope module PC $end
$var wire 1 ! CLK $end
$var wire 32 J" PCNext [31:0] $end
$var reg 32 K" PC [31:0] $end
$upscope $end
$upscope $end
$scope module M $end
$var wire 1 ! CLK $end
$var wire 32 L" Pass_ALUResultM [31:0] $end
$var wire 32 M" Pass_PCPlus4M [31:0] $end
$var wire 5 N" Pass_RdM [4:0] $end
$var wire 1 < Pass_RegWriteM $end
$var wire 1 9 Pass_ResultSrcM $end
$var wire 32 O" WriteDataM [31:0] $end
$var wire 1 ' ResultSrcM $end
$var wire 1 + RegWriteM $end
$var wire 5 P" RdM [4:0] $end
$var wire 32 Q" RD [31:0] $end
$var wire 32 R" PCPlus4M [31:0] $end
$var wire 1 Q MemWriteM $end
$var wire 32 S" ALUResultM [31:0] $end
$scope module DM $end
$var wire 1 ! CLK $end
$var wire 32 T" RD [31:0] $end
$var wire 1 Q WE $end
$var wire 32 U" WD [31:0] $end
$var wire 32 V" A [31:0] $end
$upscope $end
$upscope $end
$scope module R1 $end
$var wire 1 ! CLK $end
$var wire 32 W" PCF [31:0] $end
$var wire 32 X" PCPlus4F [31:0] $end
$var wire 32 Y" RD [31:0] $end
$var reg 32 Z" InstrD [31:0] $end
$var reg 32 [" PCD [31:0] $end
$var reg 32 \" PCPlus4D [31:0] $end
$upscope $end
$scope module R2 $end
$var wire 3 ]" ALUControlD [2:0] $end
$var wire 1 Z ALUSrcD $end
$var wire 1 X BranchD $end
$var wire 1 ! CLK $end
$var wire 32 ^" ImmExtD [31:0] $end
$var wire 1 S MemWriteD $end
$var wire 32 _" Pass_PCD [31:0] $end
$var wire 32 `" Pass_PCPlus4D [31:0] $end
$var wire 32 a" RD1D [31:0] $end
$var wire 32 b" RD2D [31:0] $end
$var wire 5 c" RdD [4:0] $end
$var wire 1 - RegWriteD $end
$var wire 1 ) ResultSrcD $end
$var reg 3 d" ALUControlE [2:0] $end
$var reg 1 Y ALUSrcE $end
$var reg 1 W BranchE $end
$var reg 32 e" ImmExtE [31:0] $end
$var reg 1 R MemWriteE $end
$var reg 32 f" PCE [31:0] $end
$var reg 32 g" PCPlus4E [31:0] $end
$var reg 32 h" RD1E [31:0] $end
$var reg 32 i" RD2E [31:0] $end
$var reg 5 j" RdE [4:0] $end
$var reg 1 , RegWriteE $end
$var reg 1 ( ResultSrcE $end
$upscope $end
$scope module R3 $end
$var wire 32 k" ALUResultE [31:0] $end
$var wire 1 ! CLK $end
$var wire 1 E Pass_MemWriteE $end
$var wire 32 l" Pass_PCPlus4E [31:0] $end
$var wire 5 m" Pass_RdE [4:0] $end
$var wire 1 = Pass_RegWriteE $end
$var wire 1 : Pass_ResultSrcE $end
$var wire 32 n" WriteDataE [31:0] $end
$var reg 32 o" ALUResultM [31:0] $end
$var reg 1 Q MemWriteM $end
$var reg 32 p" PCPlus4M [31:0] $end
$var reg 5 q" RdM [4:0] $end
$var reg 1 + RegWriteM $end
$var reg 1 ' ResultSrcM $end
$var reg 32 r" WriteDataM [31:0] $end
$upscope $end
$scope module R4 $end
$var wire 1 ! CLK $end
$var wire 32 s" Pass_ALUResultM [31:0] $end
$var wire 32 t" Pass_PCPlus4M [31:0] $end
$var wire 5 u" Pass_RdM [4:0] $end
$var wire 1 < Pass_RegWriteM $end
$var wire 1 9 Pass_ResultSrcM $end
$var wire 32 v" RD [31:0] $end
$var reg 32 w" ALUResultW [31:0] $end
$var reg 32 x" PCPlus4W [31:0] $end
$var reg 5 y" RdW [4:0] $end
$var reg 32 z" ReadDataW [31:0] $end
$var reg 1 * RegWriteW $end
$var reg 1 & ResultSrcW $end
$upscope $end
$scope module WB $end
$var wire 32 {" ALUResultW [31:0] $end
$var wire 32 |" PCPlus4W [31:0] $end
$var wire 5 }" Pass_RdW [4:0] $end
$var wire 1 ; Pass_RegWriteW $end
$var wire 5 ~" RdW [4:0] $end
$var wire 32 !# ReadDataW [31:0] $end
$var wire 1 * RegWriteW $end
$var wire 1 & ResultSrcW $end
$var wire 32 "# ResultW [31:0] $end
$scope module M3 $end
$var wire 32 ## ALUResult [31:0] $end
$var wire 32 $# RD [31:0] $end
$var wire 1 & ResultSrc $end
$var wire 32 %# Result [31:0] $end
$upscope $end
$upscope $end
$upscope $end
$upscope $end
$enddefinitions $end
$comment Show the parameter values. $end
$dumpall
$end
#0
$dumpvars
bx %#
bx $#
bx ##
bx "#
bx !#
bx ~"
bx }"
bx |"
bx {"
bx z"
bx y"
bx x"
bx w"
bx v"
bx u"
bx t"
bx s"
bx r"
bx q"
bx p"
bx o"
bx n"
bx m"
bx l"
bx k"
bx j"
bx i"
bx h"
bx g"
bx f"
bx e"
bx d"
bx c"
bx b"
bx a"
bx `"
bx _"
bx ^"
bx ]"
bx \"
bx ["
bx Z"
b1000001000001010110011 Y"
b100 X"
b0 W"
bx V"
bx U"
bx T"
bx S"
bx R"
bx Q"
bx P"
bx O"
bx N"
bx M"
bx L"
b0 K"
b0 J"
b0 I"
bx H"
b100 G"
b0 F"
b1000001000001010110011 E"
b0 D"
b100 C"
b0 B"
b0 A"
b1000001000001010110011 @"
b100 ?"
bx >"
b100 ="
bx <"
bx ;"
bx :"
bx 9"
bx 8"
bx 7"
bx 6"
bx 5"
bx 4"
bx 3"
bx 2"
bx 1"
bx 0"
bx /"
bx ."
bx -"
bx ,"
bx +"
bx *"
bx )"
x("
bx '"
bx &"
bx %"
bx $"
bx #"
bx ""
bx !"
bx ~
bx }
bx |
bx {
bx z
bx y
bx x
bx w
bx v
bx u
bx t
bx s
bx r
bx q
xp
bx o
xn
bx m
bx l
bx k
bx j
bx i
bx h
bx g
bx f
bx e
bx d
bx c
bx b
bx a
bx `
bx _
bx ^
bx ]
bx \
bx [
xZ
xY
xX
xW
bx V
bx U
bx T
xS
xR
xQ
bx P
bx O
b0 N
bx M
bx L
b100 K
bx J
bx I
xH
bx G
bx F
xE
bx D
bx C
bx B
bx A
bx @
bx ?
bx >
x=
x<
x;
x:
x9
bx 8
bx 7
bx 6
bx 5
bx 4
b1000001000001010110011 3
bx 2
bx 1
bx 0
bx /
bx .
x-
x,
x+
x*
x)
x(
x'
x&
bx %
bx $
bx #
b100000 "
0!
$end
#50000
b10 V
b10 k
b10 |
b10 ^"
b0 _
b0 l
b0 s
b0 v
b0 ]"
1p
b10 r
b10 u
b10 x
1-
b0 j
b0 q
b0 y
b0 z
0Z
0S
0)
0X
b101 2
b101 d
b101 c"
b100000100000101 {
b10 6
b10 e
b10 ""
b10 b"
b10 ~
b1 8
b1 f
b1 !"
b1 a"
b1 }
0n
b0 m
b0 t
b110011 o
b110011 w
b100 C
b100 a
b100 `"
b100 M
b100 g
b100 \"
b0 D
b0 `
b0 _"
b0 P
b0 h
b0 ["
b1000001000001010110011 T
b1000001000001010110011 i
b1000001000001010110011 Z"
1!
#100000
0!
#150000
0("
b100 B"
b100 I"
b100 J"
b11 ]
b11 1"
b11 9"
b11 k"
b10 )"
b10 6"
b10 :"
0H
b10 G
b10 -"
b10 3"
b10 >"
b10 H"
b10 U
b10 0"
b10 5"
b10 <"
b10 e"
b101 @
b101 &"
b101 m"
b101 1
b101 *"
b101 j"
b10 $
b10 '"
b10 n"
b10 5
b10 +"
b10 ;"
b10 i"
b1 7
b1 ,"
b1 7"
b1 h"
b100 B
b100 %"
b100 l"
b100 L
b100 ."
b100 g"
b0 O
b0 /"
b0 4"
b0 f"
0Y
b0 ^
b0 2"
b0 8"
b0 d"
0W
0E
0R
0:
0(
1=
1,
1!
#200000
0!
#250000
b1000 B"
b1000 I"
b1000 J"
b1000000010000011000001100110011 3
b1000000010000011000001100110011 @"
b1000000010000011000001100110011 E"
b1000000010000011000001100110011 Y"
b1000 K
b1000 ="
b1000 X"
b1000 ?"
b1000 C"
b1000 G"
b100 N
b100 A"
b100 D"
b100 F"
b100 K"
b100 W"
b100 A
b100 M"
b100 t"
b100 J
b100 R"
b100 p"
b101 ?
b101 N"
b101 u"
b101 0
b101 P"
b101 q"
b10 #
b10 O"
b10 U"
b10 r"
b11 F
b11 L"
b11 s"
b11 \
b11 S"
b11 V"
b11 o"
0Q
09
0'
1<
1+
1!
#300000
0!
#350000
b10000000100 V
b10000000100 k
b10000000100 |
b10000000100 ^"
b1 _
b1 l
b1 s
b1 v
b1 ]"
b1100 B"
b1100 I"
b1100 J"
b11 %
b11 b
b11 #"
b11 "#
b11 %#
b110 2
b110 d
b110 c"
b100000001000001100000110 {
b100 6
b100 e
b100 ""
b100 b"
b100 ~
b11 8
b11 f
b11 !"
b11 a"
b11 }
1n
b100001001111001110110011 3
b100001001111001110110011 @"
b100001001111001110110011 E"
b100001001111001110110011 Y"
b100 I
b100 x"
b100 |"
b101 >
b101 c
b101 $"
b101 }"
b101 /
b101 y"
b101 ~"
b11 [
b11 w"
b11 {"
b11 ##
0&
1;
1*
b1000 C
b1000 a
b1000 `"
b1000 M
b1000 g
b1000 \"
b100 D
b100 `
b100 _"
b100 P
b100 h
b100 ["
b1000000010000011000001100110011 T
b1000000010000011000001100110011 i
b1000000010000011000001100110011 Z"
b1100 K
b1100 ="
b1100 X"
b1100 ?"
b1100 C"
b1100 G"
b1000 N
b1000 A"
b1000 D"
b1000 F"
b1000 K"
b1000 W"
1!
#400000
0!
#450000
b10000 B"
b10000 I"
b10000 J"
b1000 V
b1000 k
b1000 |
b1000 ^"
b10 _
b10 l
b10 s
b10 v
b10 ]"
b110001101110010100110011 3
b110001101110010100110011 @"
b110001101110010100110011 E"
b110001101110010100110011 Y"
b111 2
b111 d
b111 c"
b10000100111100111 {
b1000 6
b1000 e
b1000 ""
b1000 b"
b1000 ~
b1001 8
b1001 f
b1001 !"
b1001 a"
b1001 }
0n
b111 m
b111 t
b100 )"
b100 6"
b100 :"
b11111111111111111111111111111111 ]
b11111111111111111111111111111111 1"
b11111111111111111111111111111111 9"
b11111111111111111111111111111111 k"
b10000 K
b10000 ="
b10000 X"
b10000 ?"
b10000 C"
b10000 G"
b1100 N
b1100 A"
b1100 D"
b1100 F"
b1100 K"
b1100 W"
b1100 C
b1100 a
b1100 `"
b1100 M
b1100 g
b1100 \"
b1000 D
b1000 `
b1000 _"
b1000 P
b1000 h
b1000 ["
b100001001111001110110011 T
b100001001111001110110011 i
b100001001111001110110011 Z"
b10000000100 U
b10000000100 0"
b10000000100 5"
b10000000100 <"
b10000000100 e"
b110 @
b110 &"
b110 m"
b110 1
b110 *"
b110 j"
b100 $
b100 '"
b100 n"
b100 5
b100 +"
b100 ;"
b100 i"
b11 7
b11 ,"
b11 7"
b11 h"
b1000 B
b1000 %"
b1000 l"
b1000 L
b1000 ."
b1000 g"
b10000001000 G
b10000001000 -"
b10000001000 3"
b10000001000 >"
b10000001000 H"
b100 O
b100 /"
b100 4"
b100 f"
b1 ^
b1 2"
b1 8"
b1 d"
1!
#500000
0!
#550000
0("
b1100 V
b1100 k
b1100 |
b1100 ^"
b11 _
b11 l
b11 s
b11 v
b11 ]"
b10100 B"
b10100 I"
b10100 J"
b1000 )"
b1000 6"
b1000 :"
b1000 ]
b1000 1"
b1000 9"
b1000 k"
b1010 2
b1010 d
b1010 c"
b11000110111001010 {
b1100 6
b1100 e
b1100 ""
b1100 b"
b1100 ~
b1101 8
b1101 f
b1101 !"
b1101 a"
b1101 }
b110 m
b110 t
b111001111010010110110011 3
b111001111010010110110011 @"
b111001111010010110110011 E"
b111001111010010110110011 Y"
b1000 A
b1000 M"
b1000 t"
b1000 J
b1000 R"
b1000 p"
b110 ?
b110 N"
b110 u"
b110 0
b110 P"
b110 q"
b100 #
b100 O"
b100 U"
b100 r"
b11111111111111111111111111111111 F
b11111111111111111111111111111111 L"
b11111111111111111111111111111111 s"
b11111111111111111111111111111111 \
b11111111111111111111111111111111 S"
b11111111111111111111111111111111 V"
b11111111111111111111111111111111 o"
b1000 U
b1000 0"
b1000 5"
b1000 <"
b1000 e"
b111 @
b111 &"
b111 m"
b111 1
b111 *"
b111 j"
b1000 $
b1000 '"
b1000 n"
b1000 5
b1000 +"
b1000 ;"
b1000 i"
b1001 7
b1001 ,"
b1001 7"
b1001 h"
b1100 B
b1100 %"
b1100 l"
b1100 L
b1100 ."
b1100 g"
b10000 G
b10000 -"
b10000 3"
b10000 >"
b10000 H"
b1000 O
b1000 /"
b1000 4"
b1000 f"
b10 ^
b10 2"
b10 8"
b10 d"
b10000 C
b10000 a
b10000 `"
b10000 M
b10000 g
b10000 \"
b1100 D
b1100 `
b1100 _"
b1100 P
b1100 h
b1100 ["
b110001101110010100110011 T
b110001101110010100110011 i
b110001101110010100110011 Z"
b10100 K
b10100 ="
b10100 X"
b10100 ?"
b10100 C"
b10100 G"
b10000 N
b10000 A"
b10000 D"
b10000 F"
b10000 K"
b10000 W"
1!
#600000
0!
#650000
b11000 B"
b11000 I"
b11000 J"
b1110 V
b1110 k
b1110 |
b1110 ^"
b101 _
b101 l
b101 s
b101 v
b101 ]"
b1010000000000100000010011 3
b1010000000000100000010011 @"
b1010000000000100000010011 E"
b1010000000000100000010011 Y"
b1011 2
b1011 d
b1011 c"
b11100111101001011 {
b1110 6
b1110 e
b1110 ""
b1110 b"
b1110 ~
b1111 8
b1111 f
b1111 !"
b1111 a"
b1111 }
b10 m
b10 t
b1100 )"
b1100 6"
b1100 :"
b1101 ]
b1101 1"
b1101 9"
b1101 k"
b11111111111111111111111111111111 %
b11111111111111111111111111111111 b
b11111111111111111111111111111111 #"
b11111111111111111111111111111111 "#
b11111111111111111111111111111111 %#
b11000 K
b11000 ="
b11000 X"
b11000 ?"
b11000 C"
b11000 G"
b10100 N
b10100 A"
b10100 D"
b10100 F"
b10100 K"
b10100 W"
b10100 C
b10100 a
b10100 `"
b10100 M
b10100 g
b10100 \"
b10000 D
b10000 `
b10000 _"
b10000 P
b10000 h
b10000 ["
b111001111010010110110011 T
b111001111010010110110011 i
b111001111010010110110011 Z"
b1100 U
b1100 0"
b1100 5"
b1100 <"
b1100 e"
b1010 @
b1010 &"
b1010 m"
b1010 1
b1010 *"
b1010 j"
b1100 $
b1100 '"
b1100 n"
b1100 5
b1100 +"
b1100 ;"
b1100 i"
b1101 7
b1101 ,"
b1101 7"
b1101 h"
b10000 B
b10000 %"
b10000 l"
b10000 L
b10000 ."
b10000 g"
b11000 G
b11000 -"
b11000 3"
b11000 >"
b11000 H"
b1100 O
b1100 /"
b1100 4"
b1100 f"
b11 ^
b11 2"
b11 8"
b11 d"
b1100 A
b1100 M"
b1100 t"
b1100 J
b1100 R"
b1100 p"
b111 ?
b111 N"
b111 u"
b111 0
b111 P"
b111 q"
b1000 #
b1000 O"
b1000 U"
b1000 r"
b1000 F
b1000 L"
b1000 s"
b1000 \
b1000 S"
b1000 V"
b1000 o"
b1000 I
b1000 x"
b1000 |"
b110 >
b110 c
b110 $"
b110 }"
b110 /
b110 y"
b110 ~"
b11111111111111111111111111111111 [
b11111111111111111111111111111111 w"
b11111111111111111111111111111111 {"
b11111111111111111111111111111111 ##
1!
#700000
0!
#750000
1("
b10100 V
b10100 k
b10100 |
b10100 ^"
b0 _
b0 l
b0 s
b0 v
b0 ]"
0p
1Z
b10 r
b10 u
b10 x
1-
b11100 B"
b11100 I"
b11100 J"
b1000 %
b1000 b
b1000 #"
b1000 "#
b1000 %#
b1110 )"
b1110 6"
b1110 :"
b0 ]
b0 1"
b0 9"
b0 k"
b10000 2
b10000 d
b10000 c"
b101000000000010000 {
b10100 6
b10100 e
b10100 ""
b10100 b"
b10100 ~
b0 8
b0 f
b0 !"
b0 a"
b0 }
b0 m
b0 t
b10011 o
b10011 w
b111100000111100010010011 3
b111100000111100010010011 @"
b111100000111100010010011 E"
b111100000111100010010011 Y"
b1100 I
b1100 x"
b1100 |"
b111 >
b111 c
b111 $"
b111 }"
b111 /
b111 y"
b111 ~"
b1000 [
b1000 w"
b1000 {"
b1000 ##
b10000 A
b10000 M"
b10000 t"
b10000 J
b10000 R"
b10000 p"
b1010 ?
b1010 N"
b1010 u"
b1010 0
b1010 P"
b1010 q"
b1100 #
b1100 O"
b1100 U"
b1100 r"
b1101 F
b1101 L"
b1101 s"
b1101 \
b1101 S"
b1101 V"
b1101 o"
b1110 U
b1110 0"
b1110 5"
b1110 <"
b1110 e"
b1011 @
b1011 &"
b1011 m"
b1011 1
b1011 *"
b1011 j"
b1110 $
b1110 '"
b1110 n"
b1110 5
b1110 +"
b1110 ;"
b1110 i"
b1111 7
b1111 ,"
b1111 7"
b1111 h"
b10100 B
b10100 %"
b10100 l"
b10100 L
b10100 ."
b10100 g"
b11110 G
b11110 -"
b11110 3"
b11110 >"
b11110 H"
b10000 O
b10000 /"
b10000 4"
b10000 f"
b101 ^
b101 2"
b101 8"
b101 d"
b11000 C
b11000 a
b11000 `"
b11000 M
b11000 g
b11000 \"
b10100 D
b10100 `
b10100 _"
b10100 P
b10100 h
b10100 ["
b1010000000000100000010011 T
b1010000000000100000010011 i
b1010000000000100000010011 Z"
b11100 K
b11100 ="
b11100 X"
b11100 ?"
b11100 C"
b11100 G"
b11000 N
b11000 A"
b11000 D"
b11000 F"
b11000 K"
b11000 W"
1!
#800000
0!
#850000
b100000 B"
b100000 I"
b100000 J"
b1111 V
b1111 k
b1111 |
b1111 ^"
b10 _
b10 l
b10 s
b10 v
b10 ]"
0("
b1111100000110100100010011 3
b1111100000110100100010011 @"
b1111100000110100100010011 E"
b1111100000110100100010011 Y"
b10001 2
b10001 d
b10001 c"
b11110000011110001 {
b1111 6
b1111 e
b1111 ""
b1111 b"
b1111 ~
b111 m
b111 t
b10100 )"
b10100 6"
b10100 :"
b10100 ]
b10100 1"
b10100 9"
b10100 k"
b1101 %
b1101 b
b1101 #"
b1101 "#
b1101 %#
b100000 K
b100000 ="
b100000 X"
b100000 ?"
b100000 C"
b100000 G"
b11100 N
b11100 A"
b11100 D"
b11100 F"
b11100 K"
b11100 W"
b11100 C
b11100 a
b11100 `"
b11100 M
b11100 g
b11100 \"
b11000 D
b11000 `
b11000 _"
b11000 P
b11000 h
b11000 ["
b111100000111100010010011 T
b111100000111100010010011 i
b111100000111100010010011 Z"
b10100 U
b10100 0"
b10100 5"
b10100 <"
b10100 e"
b10000 @
b10000 &"
b10000 m"
b10000 1
b10000 *"
b10000 j"
b10100 $
b10100 '"
b10100 n"
b10100 5
b10100 +"
b10100 ;"
b10100 i"
b0 7
b0 ,"
b0 7"
b0 h"
b11000 B
b11000 %"
b11000 l"
b11000 L
b11000 ."
b11000 g"
b101000 G
b101000 -"
b101000 3"
b101000 >"
b101000 H"
b10100 O
b10100 /"
b10100 4"
b10100 f"
1Y
b0 ^
b0 2"
b0 8"
b0 d"
b10100 A
b10100 M"
b10100 t"
b10100 J
b10100 R"
b10100 p"
b1011 ?
b1011 N"
b1011 u"
b1011 0
b1011 P"
b1011 q"
b1110 #
b1110 O"
b1110 U"
b1110 r"
b0 F
b0 L"
b0 s"
b0 \
b0 S"
b0 V"
b0 o"
b10000 I
b10000 x"
b10000 |"
b1010 >
b1010 c
b1010 $"
b1010 }"
b1010 /
b1010 y"
b1010 ~"
b1101 [
b1101 w"
b1101 {"
b1101 ##
1!
#900000
0!
#950000
1("
b11111 V
b11111 k
b11111 |
b11111 ^"
b11 _
b11 l
b11 s
b11 v
b11 ]"
b100100 B"
b100100 I"
b100100 J"
b0 %
b0 b
b0 #"
b0 "#
b0 %#
b1111 )"
b1111 6"
b1111 :"
b0 ]
b0 1"
b0 9"
b0 k"
b10010 2
b10010 d
b10010 c"
b111110000011010010 {
b11111 6
b11111 e
b11111 ""
b11111 b"
b11111 ~
b110 m
b110 t
b100000010100110010011 3
b100000010100110010011 @"
b100000010100110010011 E"
b100000010100110010011 Y"
b10100 I
b10100 x"
b10100 |"
b1011 >
b1011 c
b1011 $"
b1011 }"
b1011 /
b1011 y"
b1011 ~"
b0 [
b0 w"
b0 {"
b0 ##
b11000 A
b11000 M"
b11000 t"
b11000 J
b11000 R"
b11000 p"
b10000 ?
b10000 N"
b10000 u"
b10000 0
b10000 P"
b10000 q"
b10100 #
b10100 O"
b10100 U"
b10100 r"
b10100 F
b10100 L"
b10100 s"
b10100 \
b10100 S"
b10100 V"
b10100 o"
b1111 U
b1111 0"
b1111 5"
b1111 <"
b1111 e"
b10001 @
b10001 &"
b10001 m"
b10001 1
b10001 *"
b10001 j"
b1111 $
b1111 '"
b1111 n"
b1111 5
b1111 +"
b1111 ;"
b1111 i"
b11100 B
b11100 %"
b11100 l"
b11100 L
b11100 ."
b11100 g"
b100111 G
b100111 -"
b100111 3"
b100111 >"
b100111 H"
b11000 O
b11000 /"
b11000 4"
b11000 f"
b10 ^
b10 2"
b10 8"
b10 d"
b100000 C
b100000 a
b100000 `"
b100000 M
b100000 g
b100000 \"
b11100 D
b11100 `
b11100 _"
b11100 P
b11100 h
b11100 ["
b1111100000110100100010011 T
b1111100000110100100010011 i
b1111100000110100100010011 Z"
b100100 K
b100100 ="
b100100 X"
b100100 ?"
b100100 C"
b100100 G"
b100000 N
b100000 A"
b100000 D"
b100000 F"
b100000 K"
b100000 W"
1!
#1000000
0!
